{
  "Nodes": [
    {
      "Annotation": "all_tundra_nodes",
      "Action": "",
      "Inputs": [],
      "Outputs": [],
      "TargetDirectories": [],
      "PassIndex": 0,
      "ToBuildDependencies": [
        1,
        2
      ],
      "ToUseDependencies": [],
      "OverwriteOutputs": true,
      "FrontendResponseFiles": [],
      "AllowUnexpectedOutput": true,
      "AllowedOutputSubstrings": [],
      "DebugActionIndex": 0
    },
    {
      "Annotation": "WriteResponseFile artifacts/rsp/7177772131905986762.rsp",
      "WriteTextFilePayload": "--convert-to-cpp --dotnetprofile=\"unityaot\" --compile-cpp --libil2cpp-static --platform=\"WebGL\" --architecture=\"EmscriptenJavaScript\" --configuration=\"Release\" --outputpath=\"C:\\Users\\kylem\\Desktop\\Unity Projects\\tank shipment\\Library/Il2cppBuildCache/WebGL\\Native\\build.bc\" --cachedirectory=\"C:\\Users\\kylem\\Desktop\\Unity Projects\\tank shipment\\Assets\\..\\Library/il2cpp_cache\" --compiler-flags=\"-Oz -DIL2CPP_EXCEPTION_DISABLED=1 \" --baselib-directory=\"C:/Program Files/Unity/Hub/Editor/2020.3.19f1/Editor/Data/PlaybackEngines/WebGLSupport\\Variations\\development\" --avoid-dynamic-library-copy --emit-method-map --additional-libraries=\"C:/Program Files/Unity/Hub/Editor/2020.3.19f1/Editor/Data/PlaybackEngines/WebGLSupport\\BuildTools\\lib\\modules_development\\WebGLSupport_AccessibilityModule_Dynamic.bc\" --additional-libraries=\"C:/Program Files/Unity/Hub/Editor/2020.3.19f1/Editor/Data/PlaybackEngines/WebGLSupport\\BuildTools\\lib\\modules_development\\WebGLSupport_AIModule_Dynamic.bc\" --additional-libraries=\"C:/Program Files/Unity/Hub/Editor/2020.3.19f1/Editor/Data/PlaybackEngines/WebGLSupport\\BuildTools\\lib\\modules_development\\WebGLSupport_AndroidJNIModule_Dynamic.bc\" --additional-libraries=\"C:/Program Files/Unity/Hub/Editor/2020.3.19f1/Editor/Data/PlaybackEngines/WebGLSupport\\BuildTools\\lib\\modules_development\\WebGLSupport_AnimationModule_Dynamic.bc\" --additional-libraries=\"C:/Program Files/Unity/Hub/Editor/2020.3.19f1/Editor/Data/PlaybackEngines/WebGLSupport\\BuildTools\\lib\\modules_development\\WebGLSupport_AssetBundleModule_Dynamic.bc\" --additional-libraries=\"C:/Program Files/Unity/Hub/Editor/2020.3.19f1/Editor/Data/PlaybackEngines/WebGLSupport\\BuildTools\\lib\\modules_development\\WebGLSupport_AudioModule_Dynamic.bc\" --additional-libraries=\"C:/Program Files/Unity/Hub/Editor/2020.3.19f1/Editor/Data/PlaybackEngines/WebGLSupport\\BuildTools\\lib\\modules_development\\WebGLSupport_ClothModule_Dynamic.bc\" --additional-libraries=\"C:/Program Files/Unity/Hub/Editor/2020.3.19f1/Editor/Data/PlaybackEngines/WebGLSupport\\BuildTools\\lib\\modules_development\\WebGLSupport_CoreModule_Dynamic.bc\" --additional-libraries=\"C:/Program Files/Unity/Hub/Editor/2020.3.19f1/Editor/Data/PlaybackEngines/WebGLSupport\\BuildTools\\lib\\modules_development\\WebGLSupport_CrashReportingModule_Dynamic.bc\" --additional-libraries=\"C:/Program Files/Unity/Hub/Editor/2020.3.19f1/Editor/Data/PlaybackEngines/WebGLSupport\\BuildTools\\lib\\modules_development\\WebGLSupport_DirectorModule_Dynamic.bc\" --additional-libraries=\"C:/Program Files/Unity/Hub/Editor/2020.3.19f1/Editor/Data/PlaybackEngines/WebGLSupport\\BuildTools\\lib\\modules_development\\WebGLSupport_DSPGraphModule_Dynamic.bc\" --additional-libraries=\"C:/Program Files/Unity/Hub/Editor/2020.3.19f1/Editor/Data/PlaybackEngines/WebGLSupport\\BuildTools\\lib\\modules_development\\WebGLSupport_GameCenterModule_Dynamic.bc\" --additional-libraries=\"C:/Program Files/Unity/Hub/Editor/2020.3.19f1/Editor/Data/PlaybackEngines/WebGLSupport\\BuildTools\\lib\\modules_development\\WebGLSupport_GIModule_Dynamic.bc\" --additional-libraries=\"C:/Program Files/Unity/Hub/Editor/2020.3.19f1/Editor/Data/PlaybackEngines/WebGLSupport\\BuildTools\\lib\\modules_development\\WebGLSupport_GridModule_Dynamic.bc\" --additional-libraries=\"C:/Program Files/Unity/Hub/Editor/2020.3.19f1/Editor/Data/PlaybackEngines/WebGLSupport\\BuildTools\\lib\\modules_development\\WebGLSupport_HotReloadModule_Dynamic.bc\" --additional-libraries=\"C:/Program Files/Unity/Hub/Editor/2020.3.19f1/Editor/Data/PlaybackEngines/WebGLSupport\\BuildTools\\lib\\modules_development\\WebGLSupport_ImageConversionModule_Dynamic.bc\" --additional-libraries=\"C:/Program Files/Unity/Hub/Editor/2020.3.19f1/Editor/Data/PlaybackEngines/WebGLSupport\\BuildTools\\lib\\modules_development\\WebGLSupport_IMGUIModule_Dynamic.bc\" --additional-libraries=\"C:/Program Files/Unity/Hub/Editor/2020.3.19f1/Editor/Data/PlaybackEngines/WebGLSupport\\BuildTools\\lib\\modules_development\\WebGLSupport_InputLegacyModule_Dynamic.bc\" --additional-libraries=\"C:/Program Files/Unity/Hub/Editor/2020.3.19f1/Editor/Data/PlaybackEngines/WebGLSupport\\BuildTools\\lib\\modules_development\\WebGLSupport_InputModule_Dynamic.bc\" --additional-libraries=\"C:/Program Files/Unity/Hub/Editor/2020.3.19f1/Editor/Data/PlaybackEngines/WebGLSupport\\BuildTools\\lib\\modules_development\\WebGLSupport_JSONSerializeModule_Dynamic.bc\" --additional-libraries=\"C:/Program Files/Unity/Hub/Editor/2020.3.19f1/Editor/Data/PlaybackEngines/WebGLSupport\\BuildTools\\lib\\modules_development\\WebGLSupport_LocalizationModule_Dynamic.bc\" --additional-libraries=\"C:/Program Files/Unity/Hub/Editor/2020.3.19f1/Editor/Data/PlaybackEngines/WebGLSupport\\BuildTools\\lib\\modules_development\\WebGLSupport_ParticleSystemModule_Dynamic.bc\" --additional-libraries=\"C:/Program Files/Unity/Hub/Editor/2020.3.19f1/Editor/Data/PlaybackEngines/WebGLSupport\\BuildTools\\lib\\modules_development\\WebGLSupport_PerformanceReportingModule_Dynamic.bc\" --additional-libraries=\"C:/Program Files/Unity/Hub/Editor/2020.3.19f1/Editor/Data/PlaybackEngines/WebGLSupport\\BuildTools\\lib\\modules_development\\WebGLSupport_Physics2DModule_Dynamic.bc\" --additional-libraries=\"C:/Program Files/Unity/Hub/Editor/2020.3.19f1/Editor/Data/PlaybackEngines/WebGLSupport\\BuildTools\\lib\\modules_development\\WebGLSupport_PhysicsModule_Dynamic.bc\" --additional-libraries=\"C:/Program Files/Unity/Hub/Editor/2020.3.19f1/Editor/Data/PlaybackEngines/WebGLSupport\\BuildTools\\lib\\modules_development\\WebGLSupport_ProfilerModule_Dynamic.bc\" --additional-libraries=\"C:/Program Files/Unity/Hub/Editor/2020.3.19f1/Editor/Data/PlaybackEngines/WebGLSupport\\BuildTools\\lib\\modules_development\\WebGLSupport_RuntimeInitializeOnLoadManagerInitializerModule_Dynamic.bc\" --additional-libraries=\"C:/Program Files/Unity/Hub/Editor/2020.3.19f1/Editor/Data/PlaybackEngines/WebGLSupport\\BuildTools\\lib\\modules_development\\WebGLSupport_ScreenCaptureModule_Dynamic.bc\" --additional-libraries=\"C:/Program Files/Unity/Hub/Editor/2020.3.19f1/Editor/Data/PlaybackEngines/WebGLSupport\\BuildTools\\lib\\modules_development\\WebGLSupport_SharedInternalsModule_Dynamic.bc\" --additional-libraries=\"C:/Program Files/Unity/Hub/Editor/2020.3.19f1/Editor/Data/PlaybackEngines/WebGLSupport\\BuildTools\\lib\\modules_development\\WebGLSupport_SpriteMaskModule_Dynamic.bc\" --additional-libraries=\"C:/Program Files/Unity/Hub/Editor/2020.3.19f1/Editor/Data/PlaybackEngines/WebGLSupport\\BuildTools\\lib\\modules_development\\WebGLSupport_SpriteShapeModule_Dynamic.bc\" --additional-libraries=\"C:/Program Files/Unity/Hub/Editor/2020.3.19f1/Editor/Data/PlaybackEngines/WebGLSupport\\BuildTools\\lib\\modules_development\\WebGLSupport_StreamingModule_Dynamic.bc\" --additional-libraries=\"C:/Program Files/Unity/Hub/Editor/2020.3.19f1/Editor/Data/PlaybackEngines/WebGLSupport\\BuildTools\\lib\\modules_development\\WebGLSupport_SubstanceModule_Dynamic.bc\" --additional-libraries=\"C:/Program Files/Unity/Hub/Editor/2020.3.19f1/Editor/Data/PlaybackEngines/WebGLSupport\\BuildTools\\lib\\modules_development\\WebGLSupport_SubsystemsModule_Dynamic.bc\" --additional-libraries=\"C:/Program Files/Unity/Hub/Editor/2020.3.19f1/Editor/Data/PlaybackEngines/WebGLSupport\\BuildTools\\lib\\modules_development\\WebGLSupport_TerrainModule_Dynamic.bc\" --additional-libraries=\"C:/Program Files/Unity/Hub/Editor/2020.3.19f1/Editor/Data/PlaybackEngines/WebGLSupport\\BuildTools\\lib\\modules_development\\WebGLSupport_TerrainPhysicsModule_Dynamic.bc\" --additional-libraries=\"C:/Program Files/Unity/Hub/Editor/2020.3.19f1/Editor/Data/PlaybackEngines/WebGLSupport\\BuildTools\\lib\\modules_development\\WebGLSupport_TextCoreModule_Dynamic.bc\" --additional-libraries=\"C:/Program Files/Unity/Hub/Editor/2020.3.19f1/Editor/Data/PlaybackEngines/WebGLSupport\\BuildTools\\lib\\modules_development\\WebGLSupport_TextRenderingModule_Dynamic.bc\" --additional-libraries=\"C:/Program Files/Unity/Hub/Editor/2020.3.19f1/Editor/Data/PlaybackEngines/WebGLSupport\\BuildTools\\lib\\modules_development\\WebGLSupport_TilemapModule_Dynamic.bc\" --additional-libraries=\"C:/Program Files/Unity/Hub/Editor/2020.3.19f1/Editor/Data/PlaybackEngines/WebGLSupport\\BuildTools\\lib\\modules_development\\WebGLSupport_TLSModule_Dynamic.bc\" --additional-libraries=\"C:/Program Files/Unity/Hub/Editor/2020.3.19f1/Editor/Data/PlaybackEngines/WebGLSupport\\BuildTools\\lib\\modules_development\\WebGLSupport_UIElementsModule_Dynamic.bc\" --additional-libraries=\"C:/Program Files/Unity/Hub/Editor/2020.3.19f1/Editor/Data/PlaybackEngines/WebGLSupport\\BuildTools\\lib\\modules_development\\WebGLSupport_UIElementsNativeModule_Dynamic.bc\" --additional-libraries=\"C:/Program Files/Unity/Hub/Editor/2020.3.19f1/Editor/Data/PlaybackEngines/WebGLSupport\\BuildTools\\lib\\modules_development\\WebGLSupport_UIModule_Dynamic.bc\" --additional-libraries=\"C:/Program Files/Unity/Hub/Editor/2020.3.19f1/Editor/Data/PlaybackEngines/WebGLSupport\\BuildTools\\lib\\modules_development\\WebGLSupport_UmbraModule_Dynamic.bc\" --additional-libraries=\"C:/Program Files/Unity/Hub/Editor/2020.3.19f1/Editor/Data/PlaybackEngines/WebGLSupport\\BuildTools\\lib\\modules_development\\WebGLSupport_UNETModule_Dynamic.bc\" --additional-libraries=\"C:/Program Files/Unity/Hub/Editor/2020.3.19f1/Editor/Data/PlaybackEngines/WebGLSupport\\BuildTools\\lib\\modules_development\\WebGLSupport_UnityAnalyticsModule_Dynamic.bc\" --additional-libraries=\"C:/Program Files/Unity/Hub/Editor/2020.3.19f1/Editor/Data/PlaybackEngines/WebGLSupport\\BuildTools\\lib\\modules_development\\WebGLSupport_UnityConnectModule_Dynamic.bc\" --additional-libraries=\"C:/Program Files/Unity/Hub/Editor/2020.3.19f1/Editor/Data/PlaybackEngines/WebGLSupport\\BuildTools\\lib\\modules_development\\WebGLSupport_UnityCurlModule_Dynamic.bc\" --additional-libraries=\"C:/Program Files/Unity/Hub/Editor/2020.3.19f1/Editor/Data/PlaybackEngines/WebGLSupport\\BuildTools\\lib\\modules_development\\WebGLSupport_UnityTestProtocolModule_Dynamic.bc\" --additional-libraries=\"C:/Program Files/Unity/Hub/Editor/2020.3.19f1/Editor/Data/PlaybackEngines/WebGLSupport\\BuildTools\\lib\\modules_development\\WebGLSupport_UnityWebRequestAssetBundleModule_Dynamic.bc\" --additional-libraries=\"C:/Program Files/Unity/Hub/Editor/2020.3.19f1/Editor/Data/PlaybackEngines/WebGLSupport\\BuildTools\\lib\\modules_development\\WebGLSupport_UnityWebRequestAudioModule_Dynamic.bc\" --additional-libraries=\"C:/Program Files/Unity/Hub/Editor/2020.3.19f1/Editor/Data/PlaybackEngines/WebGLSupport\\BuildTools\\lib\\modules_development\\WebGLSupport_UnityWebRequestModule_Dynamic.bc\" --additional-libraries=\"C:/Program Files/Unity/Hub/Editor/2020.3.19f1/Editor/Data/PlaybackEngines/WebGLSupport\\BuildTools\\lib\\modules_development\\WebGLSupport_UnityWebRequestTextureModule_Dynamic.bc\" --additional-libraries=\"C:/Program Files/Unity/Hub/Editor/2020.3.19f1/Editor/Data/PlaybackEngines/WebGLSupport\\BuildTools\\lib\\modules_development\\WebGLSupport_UnityWebRequestWWWModule_Dynamic.bc\" --additional-libraries=\"C:/Program Files/Unity/Hub/Editor/2020.3.19f1/Editor/Data/PlaybackEngines/WebGLSupport\\BuildTools\\lib\\modules_development\\WebGLSupport_VehiclesModule_Dynamic.bc\" --additional-libraries=\"C:/Program Files/Unity/Hub/Editor/2020.3.19f1/Editor/Data/PlaybackEngines/WebGLSupport\\BuildTools\\lib\\modules_development\\WebGLSupport_VFXModule_Dynamic.bc\" --additional-libraries=\"C:/Program Files/Unity/Hub/Editor/2020.3.19f1/Editor/Data/PlaybackEngines/WebGLSupport\\BuildTools\\lib\\modules_development\\WebGLSupport_VideoModule_Dynamic.bc\" --additional-libraries=\"C:/Program Files/Unity/Hub/Editor/2020.3.19f1/Editor/Data/PlaybackEngines/WebGLSupport\\BuildTools\\lib\\modules_development\\WebGLSupport_VRModule_Dynamic.bc\" --additional-libraries=\"C:/Program Files/Unity/Hub/Editor/2020.3.19f1/Editor/Data/PlaybackEngines/WebGLSupport\\BuildTools\\lib\\modules_development\\WebGLSupport_WebGLModule_Dynamic.bc\" --additional-libraries=\"C:/Program Files/Unity/Hub/Editor/2020.3.19f1/Editor/Data/PlaybackEngines/WebGLSupport\\BuildTools\\lib\\modules_development\\WebGLSupport_WindModule_Dynamic.bc\" --additional-libraries=\"C:/Program Files/Unity/Hub/Editor/2020.3.19f1/Editor/Data/PlaybackEngines/WebGLSupport\\BuildTools\\lib\\modules_development\\WebGLSupport_XRModule_Dynamic.bc\" --additional-cpp=\"C:/Users/kylem/Desktop/Unity Projects/tank shipment/Library/Il2cppBuildCache/WebGL/additionalCppFiles/UnityClassRegistration.cpp\" --additional-cpp=\"C:/Users/kylem/Desktop/Unity Projects/tank shipment/Library/Il2cppBuildCache/WebGL/additionalCppFiles/UnityICallRegistration.cpp\" --profiler-report --map-file-parser=\"C:/Program Files/Unity/Hub/Editor/2020.3.19f1/Editor/Data/Tools/MapFileParser/MapFileParser.exe\" --directory=\"C:/Users/kylem/Desktop/Unity Projects/tank shipment/Temp/StagingArea/Data/Managed\" --generatedcppdir=\"C:/Users/kylem/Desktop/Unity Projects/tank shipment/Library/Il2cppBuildCache/WebGL/il2cppOutput\"",
      "Inputs": [],
      "Outputs": [
        "artifacts/rsp/7177772131905986762.rsp"
      ],
      "PassIndex": 0,
      "ToBuildDependencies": [],
      "ToUseDependencies": [],
      "OverwriteOutputs": true,
      "AllowUnwrittenOutputFiles": true,
      "DebugActionIndex": 1
    },
    {
      "Annotation": "Il2Cpp C:/Users/kylem/Desktop/Unity Projects/tank shipment/Library/Il2cppBuildCache/WebGL/Native/build.bc",
      "Action": "\"C:\\Program Files\\Unity\\Hub\\Editor\\2020.3.19f1\\Editor\\Data\\il2cpp/build/deploy/netcoreapp3.1/il2cpp.exe\" @\"artifacts\\rsp\\7177772131905986762.rsp\"",
      "Inputs": [
        "C:/Users/kylem/Desktop/Unity Projects/tank shipment/Temp/StagingArea/Data/Managed",
        "C:/Users/kylem/Desktop/Unity Projects/tank shipment/Temp/StagingArea/Data/Managed/Assembly-CSharp.dll",
        "C:/Users/kylem/Desktop/Unity Projects/tank shipment/Temp/StagingArea/Data/Managed/Mono.Security.dll",
        "C:/Users/kylem/Desktop/Unity Projects/tank shipment/Temp/StagingArea/Data/Managed/mscorlib.dll",
        "C:/Users/kylem/Desktop/Unity Projects/tank shipment/Temp/StagingArea/Data/Managed/System.Configuration.dll",
        "C:/Users/kylem/Desktop/Unity Projects/tank shipment/Temp/StagingArea/Data/Managed/System.Core.dll",
        "C:/Users/kylem/Desktop/Unity Projects/tank shipment/Temp/StagingArea/Data/Managed/System.dll",
        "C:/Users/kylem/Desktop/Unity Projects/tank shipment/Temp/StagingArea/Data/Managed/System.Xml.dll",
        "C:/Users/kylem/Desktop/Unity Projects/tank shipment/Temp/StagingArea/Data/Managed/UnityEngine.AnimationModule.dll",
        "C:/Users/kylem/Desktop/Unity Projects/tank shipment/Temp/StagingArea/Data/Managed/UnityEngine.AudioModule.dll",
        "C:/Users/kylem/Desktop/Unity Projects/tank shipment/Temp/StagingArea/Data/Managed/UnityEngine.CoreModule.dll",
        "C:/Users/kylem/Desktop/Unity Projects/tank shipment/Temp/StagingArea/Data/Managed/UnityEngine.dll",
        "C:/Users/kylem/Desktop/Unity Projects/tank shipment/Temp/StagingArea/Data/Managed/UnityEngine.InputLegacyModule.dll",
        "C:/Users/kylem/Desktop/Unity Projects/tank shipment/Temp/StagingArea/Data/Managed/UnityEngine.PhysicsModule.dll",
        "C:/Users/kylem/Desktop/Unity Projects/tank shipment/Temp/StagingArea/Data/Managed/UnityEngine.SharedInternalsModule.dll",
        "C:/Users/kylem/Desktop/Unity Projects/tank shipment/Temp/StagingArea/Data/Managed/UnityEngine.TerrainModule.dll",
        "C:/Users/kylem/Desktop/Unity Projects/tank shipment/Temp/StagingArea/Data/Managed/UnityEngine.TerrainPhysicsModule.dll",
        "C:/Users/kylem/Desktop/Unity Projects/tank shipment/Library/Il2cppBuildCache/WebGL/additionalCppFiles/UnityClassRegistration.cpp",
        "C:/Users/kylem/Desktop/Unity Projects/tank shipment/Library/Il2cppBuildCache/WebGL/additionalCppFiles/UnityICallRegistration.cpp",
        "C:/Program Files/Unity/Hub/Editor/2020.3.19f1/Editor/Data/Tools/MapFileParser/MapFileParser.exe",
        "\"C:/Program Files/Unity/Hub/Editor/2020.3.19f1/Editor/Data/il2cpp/build/deploy/netcoreapp3.1/il2cpp.exe\"",
        "artifacts/rsp/7177772131905986762.rsp"
      ],
      "Outputs": [
        "C:/Users/kylem/Desktop/Unity Projects/tank shipment/Library/Il2cppBuildCache/WebGL/Native/build.bc"
      ],
      "TargetDirectories": [],
      "PassIndex": 0,
      "ToBuildDependencies": [
        1
      ],
      "ToUseDependencies": [],
      "OverwriteOutputs": false,
      "FrontendResponseFiles": [
        "artifacts/rsp/7177772131905986762.rsp"
      ],
      "AllowUnexpectedOutput": true,
      "AllowedOutputSubstrings": [],
      "DebugActionIndex": 2
    }
  ],
  "FileSignatures": [
    {
      "File": "../../../../../../../../Program Files/Unity/Hub/Editor/2020.3.19f1/Editor/Data/PlaybackEngines/WebGLSupport/Variations/development"
    },
    {
      "File": "../../../Temp/StagingArea/Data/Managed"
    },
    {
      "File": "artifacts/buildprogram/tundra_buildprogram.dag.json"
    },
    {
      "File": "il2cpp_settings.json"
    },
    {
      "File": "unitylinker_settings.json"
    }
  ],
  "GlobSignatures": [
    {
      "Path": "../../../Temp/StagingArea/Data/Managed"
    },
    {
      "Path": "../../../../../../../../Program Files/Unity/Hub/Editor/2020.3.19f1/Editor/Data/PlaybackEngines/WebGLSupport/Variations/development",
      "Recurse": 1
    }
  ],
  "ContentDigestExtensions": [
    ".rsp",
    ".dll",
    ".exe",
    ".txt",
    ".c",
    ".cpp",
    ".h",
    ".cs",
    ".hpp"
  ],
  "StructuredLogFileName": "artifacts/tundra.log.json",
  "StateFileName": "artifacts/TundraBuildState.state",
  "StateFileNameTmp": "artifacts/TundraBuildState.state.tmp",
  "ScanCacheFileName": "artifacts/tundra.scancache",
  "ScanCacheFileNameTmp": "artifacts/tundra.scancache.tmp",
  "DigestCacheFileName": "artifacts/tundra.digestcache",
  "DigestCacheFileNameTmp": "artifacts/tundra.digestcache.tmp",
  "DirectoriesCausingImplicitDependencies": [],
        "NamedNodes": {
          "all_tundra_nodes": 0
        }
,  "DefaultNodes": [
    0
  ],
  "SharedResources": [],
  "Scanners": [],
  "Identifier": "artifacts/tundra.dag.json",
  "BuildTitle": "Bee",
  "RelativePathToRoot": ".."
}