%YAML 1.1
%TAG !u! tag:unity3d.com,2011:
--- !u!29 &1
OcclusionCullingSettings:
  m_ObjectHideFlags: 0
  serializedVersion: 2
  m_OcclusionBakeSettings:
    smallestOccluder: 5
    smallestHole: 0.25
    backfaceThreshold: 100
  m_SceneGUID: 00000000000000000000000000000000
  m_OcclusionCullingData: {fileID: 0}
--- !u!104 &2
RenderSettings:
  m_ObjectHideFlags: 0
  serializedVersion: 9
  m_Fog: 0
  m_FogColor: {r: 0.5, g: 0.5, b: 0.5, a: 1}
  m_FogMode: 3
  m_FogDensity: 0.01
  m_LinearFogStart: 0
  m_LinearFogEnd: 300
  m_AmbientSkyColor: {r: 0.212, g: 0.227, b: 0.259, a: 1}
  m_AmbientEquatorColor: {r: 0.114, g: 0.125, b: 0.133, a: 1}
  m_AmbientGroundColor: {r: 0.047, g: 0.043, b: 0.035, a: 1}
  m_AmbientIntensity: 1
  m_AmbientMode: 0
  m_SubtractiveShadowColor: {r: 0.42, g: 0.478, b: 0.627, a: 1}
  m_SkyboxMaterial: {fileID: 10304, guid: 0000000000000000f000000000000000, type: 0}
  m_HaloStrength: 0.5
  m_FlareStrength: 1
  m_FlareFadeSpeed: 3
  m_HaloTexture: {fileID: 0}
  m_SpotCookie: {fileID: 10001, guid: 0000000000000000e000000000000000, type: 0}
  m_DefaultReflectionMode: 0
  m_DefaultReflectionResolution: 128
  m_ReflectionBounces: 1
  m_ReflectionIntensity: 1
  m_CustomReflection: {fileID: 0}
  m_Sun: {fileID: 0}
  m_IndirectSpecularColor: {r: 0, g: 0, b: 0, a: 1}
  m_UseRadianceAmbientProbe: 0
--- !u!157 &3
LightmapSettings:
  m_ObjectHideFlags: 0
  serializedVersion: 12
  m_GIWorkflowMode: 0
  m_GISettings:
    serializedVersion: 2
    m_BounceScale: 1
    m_IndirectOutputScale: 1
    m_AlbedoBoost: 1
    m_EnvironmentLightingMode: 0
    m_EnableBakedLightmaps: 1
    m_EnableRealtimeLightmaps: 1
  m_LightmapEditorSettings:
    serializedVersion: 12
    m_Resolution: 2
    m_BakeResolution: 40
    m_AtlasSize: 1024
    m_AO: 0
    m_AOMaxDistance: 1
    m_CompAOExponent: 1
    m_CompAOExponentDirect: 0
    m_ExtractAmbientOcclusion: 0
    m_Padding: 2
    m_LightmapParameters: {fileID: 0}
    m_LightmapsBakeMode: 1
    m_TextureCompression: 1
    m_FinalGather: 0
    m_FinalGatherFiltering: 1
    m_FinalGatherRayCount: 256
    m_ReflectionCompression: 2
    m_MixedBakeMode: 1
    m_BakeBackend: 0
    m_PVRSampling: 1
    m_PVRDirectSampleCount: 32
    m_PVRSampleCount: 512
    m_PVRBounces: 2
    m_PVREnvironmentSampleCount: 512
    m_PVREnvironmentReferencePointCount: 2048
    m_PVRFilteringMode: 0
    m_PVRDenoiserTypeDirect: 0
    m_PVRDenoiserTypeIndirect: 0
    m_PVRDenoiserTypeAO: 0
    m_PVRFilterTypeDirect: 0
    m_PVRFilterTypeIndirect: 0
    m_PVRFilterTypeAO: 0
    m_PVREnvironmentMIS: 0
    m_PVRCulling: 1
    m_PVRFilteringGaussRadiusDirect: 1
    m_PVRFilteringGaussRadiusIndirect: 5
    m_PVRFilteringGaussRadiusAO: 2
    m_PVRFilteringAtrousPositionSigmaDirect: 0.5
    m_PVRFilteringAtrousPositionSigmaIndirect: 2
    m_PVRFilteringAtrousPositionSigmaAO: 1
    m_ExportTrainingData: 0
    m_TrainingDataDestination: TrainingData
    m_LightProbeSampleCountMultiplier: 4
  m_LightingDataAsset: {fileID: 0}
  m_LightingSettings: {fileID: 4890085278179872738, guid: 306616822d3c920488082b0aee05c169, type: 2}
--- !u!196 &4
NavMeshSettings:
  serializedVersion: 2
  m_ObjectHideFlags: 0
  m_BuildSettings:
    serializedVersion: 2
    agentTypeID: 0
    agentRadius: 0.5
    agentHeight: 2
    agentSlope: 45
    agentClimb: 0.4
    ledgeDropHeight: 0
    maxJumpAcrossDistance: 0
    minRegionArea: 2
    manualCellSize: 0
    cellSize: 0.16666667
    manualTileSize: 0
    tileSize: 256
    accuratePlacement: 0
    maxJobWorkers: 0
    preserveTilesOutsideBounds: 0
    debug:
      m_Flags: 0
  m_NavMeshData: {fileID: 0}
--- !u!1 &11569285
GameObject:
  m_ObjectHideFlags: 0
  m_CorrespondingSourceObject: {fileID: 0}
  m_PrefabInstance: {fileID: 0}
  m_PrefabAsset: {fileID: 0}
  serializedVersion: 6
  m_Component:
  - component: {fileID: 11569290}
  - component: {fileID: 11569289}
  - component: {fileID: 11569287}
  - component: {fileID: 11569286}
  m_Layer: 0
  m_Name: Main Camera
  m_TagString: MainCamera
  m_Icon: {fileID: 0}
  m_NavMeshLayer: 0
  m_StaticEditorFlags: 0
  m_IsActive: 1
--- !u!81 &11569286
AudioListener:
  m_ObjectHideFlags: 0
  m_CorrespondingSourceObject: {fileID: 0}
  m_PrefabInstance: {fileID: 0}
  m_PrefabAsset: {fileID: 0}
  m_GameObject: {fileID: 11569285}
  m_Enabled: 1
--- !u!124 &11569287
Behaviour:
  m_ObjectHideFlags: 0
  m_CorrespondingSourceObject: {fileID: 0}
  m_PrefabInstance: {fileID: 0}
  m_PrefabAsset: {fileID: 0}
  m_GameObject: {fileID: 11569285}
  m_Enabled: 1
--- !u!20 &11569289
Camera:
  m_ObjectHideFlags: 0
  m_CorrespondingSourceObject: {fileID: 0}
  m_PrefabInstance: {fileID: 0}
  m_PrefabAsset: {fileID: 0}
  m_GameObject: {fileID: 11569285}
  m_Enabled: 1
  serializedVersion: 2
  m_ClearFlags: 1
  m_BackGroundColor: {r: 0.19215687, g: 0.3019608, b: 0.4745098, a: 0}
  m_projectionMatrixMode: 1
  m_GateFitMode: 2
  m_FOVAxisMode: 0
  m_SensorSize: {x: 36, y: 24}
  m_LensShift: {x: 0, y: 0}
  m_FocalLength: 50
  m_NormalizedViewPortRect:
    serializedVersion: 2
    x: 0
    y: 0
    width: 1
    height: 1
  near clip plane: 0.3
  far clip plane: 1000
  field of view: 60
  orthographic: 0
  orthographic size: 5
  m_Depth: -1
  m_CullingMask:
    serializedVersion: 2
    m_Bits: 4294967295
  m_RenderingPath: -1
  m_TargetTexture: {fileID: 0}
  m_TargetDisplay: 0
  m_TargetEye: 3
  m_HDR: 0
  m_AllowMSAA: 1
  m_AllowDynamicResolution: 0
  m_ForceIntoRT: 0
  m_OcclusionCulling: 1
  m_StereoConvergence: 10
  m_StereoSeparation: 0.022
--- !u!4 &11569290
Transform:
  m_ObjectHideFlags: 0
  m_CorrespondingSourceObject: {fileID: 0}
  m_PrefabInstance: {fileID: 0}
  m_PrefabAsset: {fileID: 0}
  m_GameObject: {fileID: 11569285}
  m_LocalRotation: {x: 0.38268343, y: 0, z: 0, w: 0.92387956}
  m_LocalPosition: {x: 0, y: 8.31, z: -6.24}
  m_LocalScale: {x: 1, y: 1, z: 1}
  m_Children: []
  m_Father: {fileID: 0}
  m_RootOrder: 0
  m_LocalEulerAnglesHint: {x: 45, y: 0, z: 0}
--- !u!1 &119773323
GameObject:
  m_ObjectHideFlags: 0
  m_CorrespondingSourceObject: {fileID: 0}
  m_PrefabInstance: {fileID: 0}
  m_PrefabAsset: {fileID: 0}
  serializedVersion: 6
  m_Component:
  - component: {fileID: 119773327}
  - component: {fileID: 119773326}
  - component: {fileID: 119773325}
  - component: {fileID: 119773324}
  m_Layer: 0
  m_Name: Plane
  m_TagString: Untagged
  m_Icon: {fileID: 0}
  m_NavMeshLayer: 0
  m_StaticEditorFlags: 0
  m_IsActive: 1
--- !u!23 &119773324
MeshRenderer:
  m_ObjectHideFlags: 0
  m_CorrespondingSourceObject: {fileID: 0}
  m_PrefabInstance: {fileID: 0}
  m_PrefabAsset: {fileID: 0}
  m_GameObject: {fileID: 119773323}
  m_Enabled: 1
  m_CastShadows: 1
  m_ReceiveShadows: 1
  m_DynamicOccludee: 1
  m_MotionVectors: 1
  m_LightProbeUsage: 1
  m_ReflectionProbeUsage: 1
  m_RayTracingMode: 2
  m_RayTraceProcedural: 0
  m_RenderingLayerMask: 1
  m_RendererPriority: 0
  m_Materials:
  - {fileID: 2100000, guid: 85dc2b26bc1135343bd736d565a88161, type: 2}
  m_StaticBatchInfo:
    firstSubMesh: 0
    subMeshCount: 0
  m_StaticBatchRoot: {fileID: 0}
  m_ProbeAnchor: {fileID: 0}
  m_LightProbeVolumeOverride: {fileID: 0}
  m_ScaleInLightmap: 1
  m_ReceiveGI: 1
  m_PreserveUVs: 1
  m_IgnoreNormalsForChartDetection: 0
  m_ImportantGI: 0
  m_StitchLightmapSeams: 1
  m_SelectedEditorRenderState: 3
  m_MinimumChartSize: 4
  m_AutoUVMaxDistance: 0.5
  m_AutoUVMaxAngle: 89
  m_LightmapParameters: {fileID: 0}
  m_SortingLayerID: 0
  m_SortingLayer: 0
  m_SortingOrder: 0
  m_AdditionalVertexStreams: {fileID: 0}
--- !u!64 &119773325
MeshCollider:
  m_ObjectHideFlags: 0
  m_CorrespondingSourceObject: {fileID: 0}
  m_PrefabInstance: {fileID: 0}
  m_PrefabAsset: {fileID: 0}
  m_GameObject: {fileID: 119773323}
  m_Material: {fileID: 0}
  m_IsTrigger: 0
  m_Enabled: 1
  serializedVersion: 4
  m_Convex: 0
  m_CookingOptions: 30
  m_Mesh: {fileID: 10209, guid: 0000000000000000e000000000000000, type: 0}
--- !u!33 &119773326
MeshFilter:
  m_ObjectHideFlags: 0
  m_CorrespondingSourceObject: {fileID: 0}
  m_PrefabInstance: {fileID: 0}
  m_PrefabAsset: {fileID: 0}
  m_GameObject: {fileID: 119773323}
  m_Mesh: {fileID: 10209, guid: 0000000000000000e000000000000000, type: 0}
--- !u!4 &119773327
Transform:
  m_ObjectHideFlags: 0
  m_CorrespondingSourceObject: {fileID: 0}
  m_PrefabInstance: {fileID: 0}
  m_PrefabAsset: {fileID: 0}
  m_GameObject: {fileID: 119773323}
  m_LocalRotation: {x: 0, y: 0, z: 0, w: 1}
  m_LocalPosition: {x: 0, y: 0, z: 0}
  m_LocalScale: {x: 10, y: 1, z: 10}
  m_Children: []
  m_Father: {fileID: 0}
  m_RootOrder: 2
  m_LocalEulerAnglesHint: {x: 0, y: 0, z: 0}
--- !u!1001 &312609075
PrefabInstance:
  m_ObjectHideFlags: 0
  serializedVersion: 2
  m_Modification:
    m_TransformParent: {fileID: 506890838}
    m_Modifications:
    - target: {fileID: 4000010352536618, guid: 5d10ae558efe6a64d96e5b4d02ec6792, type: 3}
      propertyPath: m_LocalPosition.x
      value: 6.89
      objectReference: {fileID: 0}
    - target: {fileID: 4000010352536618, guid: 5d10ae558efe6a64d96e5b4d02ec6792, type: 3}
      propertyPath: m_LocalPosition.y
      value: 0.27
      objectReference: {fileID: 0}
    - target: {fileID: 4000010352536618, guid: 5d10ae558efe6a64d96e5b4d02ec6792, type: 3}
      propertyPath: m_LocalPosition.z
      value: 0
      objectReference: {fileID: 0}
    - target: {fileID: 4000010352536618, guid: 5d10ae558efe6a64d96e5b4d02ec6792, type: 3}
      propertyPath: m_LocalRotation.x
      value: -0.49600133
      objectReference: {fileID: 0}
    - target: {fileID: 4000010352536618, guid: 5d10ae558efe6a64d96e5b4d02ec6792, type: 3}
      propertyPath: m_LocalRotation.y
      value: -0.44126815
      objectReference: {fileID: 0}
    - target: {fileID: 4000010352536618, guid: 5d10ae558efe6a64d96e5b4d02ec6792, type: 3}
      propertyPath: m_LocalRotation.z
      value: -0.5557782
      objectReference: {fileID: 0}
    - target: {fileID: 4000010352536618, guid: 5d10ae558efe6a64d96e5b4d02ec6792, type: 3}
      propertyPath: m_LocalRotation.w
      value: 0.50037557
      objectReference: {fileID: 0}
    - target: {fileID: 4000010352536618, guid: 5d10ae558efe6a64d96e5b4d02ec6792, type: 3}
      propertyPath: m_RootOrder
      value: 4
      objectReference: {fileID: 0}
    - target: {fileID: 4000010352536618, guid: 5d10ae558efe6a64d96e5b4d02ec6792, type: 3}
      propertyPath: m_LocalEulerAnglesHint.x
      value: -80.68101
      objectReference: {fileID: 0}
    - target: {fileID: 4000010352536618, guid: 5d10ae558efe6a64d96e5b4d02ec6792, type: 3}
      propertyPath: m_LocalEulerAnglesHint.z
      value: -132.901
      objectReference: {fileID: 0}
    - target: {fileID: 4000010352536618, guid: 5d10ae558efe6a64d96e5b4d02ec6792, type: 3}
      propertyPath: m_LocalEulerAnglesHint.y
      value: 42.866
      objectReference: {fileID: 0}
    - target: {fileID: 4000010352536618, guid: 5d10ae558efe6a64d96e5b4d02ec6792, type: 3}
      propertyPath: m_LocalScale.x
      value: 1
      objectReference: {fileID: 0}
    - target: {fileID: 4000010352536618, guid: 5d10ae558efe6a64d96e5b4d02ec6792, type: 3}
      propertyPath: m_LocalScale.y
      value: 1
      objectReference: {fileID: 0}
    m_RemovedComponents: []
  m_SourcePrefab: {fileID: 100100000, guid: 5d10ae558efe6a64d96e5b4d02ec6792, type: 3}
--- !u!4 &312609076 stripped
Transform:
  m_CorrespondingSourceObject: {fileID: 4000010352536618, guid: 5d10ae558efe6a64d96e5b4d02ec6792, type: 3}
  m_PrefabInstance: {fileID: 312609075}
  m_PrefabAsset: {fileID: 0}
--- !u!1 &506890837
GameObject:
  m_ObjectHideFlags: 0
  m_CorrespondingSourceObject: {fileID: 0}
  m_PrefabInstance: {fileID: 0}
  m_PrefabAsset: {fileID: 0}
  serializedVersion: 6
  m_Component:
  - component: {fileID: 506890838}
  m_Layer: 0
  m_Name: Mesh
  m_TagString: Untagged
  m_Icon: {fileID: 0}
  m_NavMeshLayer: 0
  m_StaticEditorFlags: 0
  m_IsActive: 1
--- !u!4 &506890838
Transform:
  m_ObjectHideFlags: 0
  m_CorrespondingSourceObject: {fileID: 0}
  m_PrefabInstance: {fileID: 0}
  m_PrefabAsset: {fileID: 0}
  m_GameObject: {fileID: 506890837}
  m_LocalRotation: {x: 0, y: 0, z: 0, w: 1}
  m_LocalPosition: {x: 0, y: 0, z: 0}
  m_LocalScale: {x: 1, y: 1, z: 1}
  m_Children:
  - {fileID: 1086708243}
  - {fileID: 1118611686}
  - {fileID: 1106049070}
  - {fileID: 1284916121}
  - {fileID: 312609076}
  - {fileID: 1075346303}
  m_Father: {fileID: 0}
  m_RootOrder: 3
  m_LocalEulerAnglesHint: {x: 0, y: 0, z: 0}
--- !u!1001 &1075346302
PrefabInstance:
  m_ObjectHideFlags: 0
  serializedVersion: 2
  m_Modification:
    m_TransformParent: {fileID: 506890838}
    m_Modifications:
    - target: {fileID: 4000013213224824, guid: a649302f8407dd9469e2c5b67b4a0674, type: 3}
      propertyPath: m_LocalPosition.x
      value: -6.02
      objectReference: {fileID: 0}
    - target: {fileID: 4000013213224824, guid: a649302f8407dd9469e2c5b67b4a0674, type: 3}
      propertyPath: m_LocalPosition.y
      value: 0.76
      objectReference: {fileID: 0}
    - target: {fileID: 4000013213224824, guid: a649302f8407dd9469e2c5b67b4a0674, type: 3}
      propertyPath: m_LocalPosition.z
      value: 0.08
      objectReference: {fileID: 0}
    - target: {fileID: 4000013213224824, guid: a649302f8407dd9469e2c5b67b4a0674, type: 3}
      propertyPath: m_LocalRotation.x
      value: -0.57921934
      objectReference: {fileID: 0}
    - target: {fileID: 4000013213224824, guid: a649302f8407dd9469e2c5b67b4a0674, type: 3}
      propertyPath: m_LocalRotation.y
      value: 0.8070101
      objectReference: {fileID: 0}
    - target: {fileID: 4000013213224824, guid: a649302f8407dd9469e2c5b67b4a0674, type: 3}
      propertyPath: m_LocalRotation.z
      value: 0.056186773
      objectReference: {fileID: 0}
    - target: {fileID: 4000013213224824, guid: a649302f8407dd9469e2c5b67b4a0674, type: 3}
      propertyPath: m_LocalRotation.w
      value: 0.100413054
      objectReference: {fileID: 0}
    - target: {fileID: 4000013213224824, guid: a649302f8407dd9469e2c5b67b4a0674, type: 3}
      propertyPath: m_RootOrder
      value: 5
      objectReference: {fileID: 0}
    - target: {fileID: 4000013213224824, guid: a649302f8407dd9469e2c5b67b4a0674, type: 3}
      propertyPath: m_LocalEulerAnglesHint.y
      value: 174.47101
      objectReference: {fileID: 0}
    - target: {fileID: 4000013213224824, guid: a649302f8407dd9469e2c5b67b4a0674, type: 3}
      propertyPath: m_LocalEulerAnglesHint.x
      value: -11.891001
      objectReference: {fileID: 0}
    - target: {fileID: 4000013213224824, guid: a649302f8407dd9469e2c5b67b4a0674, type: 3}
      propertyPath: m_LocalEulerAnglesHint.z
      value: -71.034004
      objectReference: {fileID: 0}
    - target: {fileID: 4000013213224824, guid: a649302f8407dd9469e2c5b67b4a0674, type: 3}
      propertyPath: m_LocalScale.x
      value: 1
      objectReference: {fileID: 0}
    - target: {fileID: 4000013213224824, guid: a649302f8407dd9469e2c5b67b4a0674, type: 3}
      propertyPath: m_LocalScale.y
      value: 1
      objectReference: {fileID: 0}
    - target: {fileID: 4000013213224824, guid: a649302f8407dd9469e2c5b67b4a0674, type: 3}
      propertyPath: m_LocalScale.z
      value: 1
      objectReference: {fileID: 0}
    m_RemovedComponents: []
  m_SourcePrefab: {fileID: 100100000, guid: a649302f8407dd9469e2c5b67b4a0674, type: 3}
--- !u!4 &1075346303 stripped
Transform:
  m_CorrespondingSourceObject: {fileID: 4000013213224824, guid: a649302f8407dd9469e2c5b67b4a0674, type: 3}
  m_PrefabInstance: {fileID: 1075346302}
  m_PrefabAsset: {fileID: 0}
--- !u!1001 &1086708242
PrefabInstance:
  m_ObjectHideFlags: 0
  serializedVersion: 2
  m_Modification:
    m_TransformParent: {fileID: 506890838}
    m_Modifications:
    - target: {fileID: 4000010968662070, guid: 30b99e7dc1382e346a7f9789de00de5e, type: 3}
      propertyPath: m_LocalPosition.x
      value: -0.03
      objectReference: {fileID: 0}
    - target: {fileID: 4000010968662070, guid: 30b99e7dc1382e346a7f9789de00de5e, type: 3}
      propertyPath: m_LocalPosition.y
      value: 1.33
      objectReference: {fileID: 0}
    - target: {fileID: 4000010968662070, guid: 30b99e7dc1382e346a7f9789de00de5e, type: 3}
      propertyPath: m_LocalPosition.z
      value: 5.45
      objectReference: {fileID: 0}
    - target: {fileID: 4000010968662070, guid: 30b99e7dc1382e346a7f9789de00de5e, type: 3}
      propertyPath: m_LocalRotation.x
      value: -0
      objectReference: {fileID: 0}
    - target: {fileID: 4000010968662070, guid: 30b99e7dc1382e346a7f9789de00de5e, type: 3}
      propertyPath: m_LocalRotation.y
      value: -0.98463887
      objectReference: {fileID: 0}
    - target: {fileID: 4000010968662070, guid: 30b99e7dc1382e346a7f9789de00de5e, type: 3}
      propertyPath: m_LocalRotation.z
      value: -0
      objectReference: {fileID: 0}
    - target: {fileID: 4000010968662070, guid: 30b99e7dc1382e346a7f9789de00de5e, type: 3}
      propertyPath: m_LocalRotation.w
      value: 0.17460324
      objectReference: {fileID: 0}
    - target: {fileID: 4000010968662070, guid: 30b99e7dc1382e346a7f9789de00de5e, type: 3}
      propertyPath: m_RootOrder
      value: 0
      objectReference: {fileID: 0}
    - target: {fileID: 4000010968662070, guid: 30b99e7dc1382e346a7f9789de00de5e, type: 3}
      propertyPath: m_LocalEulerAnglesHint.y
      value: -160.171
      objectReference: {fileID: 0}
    m_RemovedComponents: []
  m_SourcePrefab: {fileID: 100100000, guid: 30b99e7dc1382e346a7f9789de00de5e, type: 3}
--- !u!4 &1086708243 stripped
Transform:
  m_CorrespondingSourceObject: {fileID: 4000010968662070, guid: 30b99e7dc1382e346a7f9789de00de5e, type: 3}
  m_PrefabInstance: {fileID: 1086708242}
  m_PrefabAsset: {fileID: 0}
--- !u!1001 &1106049069
PrefabInstance:
  m_ObjectHideFlags: 0
  serializedVersion: 2
  m_Modification:
    m_TransformParent: {fileID: 506890838}
    m_Modifications:
    - target: {fileID: 4000013308252972, guid: 75fa8bf3a73ee6b4da0c7a2c6d3db6a1, type: 3}
      propertyPath: m_LocalPosition.x
      value: -7.26
      objectReference: {fileID: 0}
    - target: {fileID: 4000013308252972, guid: 75fa8bf3a73ee6b4da0c7a2c6d3db6a1, type: 3}
      propertyPath: m_LocalPosition.y
      value: 1.35
      objectReference: {fileID: 0}
    - target: {fileID: 4000013308252972, guid: 75fa8bf3a73ee6b4da0c7a2c6d3db6a1, type: 3}
      propertyPath: m_LocalPosition.z
      value: 5.45
      objectReference: {fileID: 0}
    - target: {fileID: 4000013308252972, guid: 75fa8bf3a73ee6b4da0c7a2c6d3db6a1, type: 3}
      propertyPath: m_LocalRotation.x
      value: -0
      objectReference: {fileID: 0}
    - target: {fileID: 4000013308252972, guid: 75fa8bf3a73ee6b4da0c7a2c6d3db6a1, type: 3}
      propertyPath: m_LocalRotation.y
      value: 0.61680484
      objectReference: {fileID: 0}
    - target: {fileID: 4000013308252972, guid: 75fa8bf3a73ee6b4da0c7a2c6d3db6a1, type: 3}
      propertyPath: m_LocalRotation.z
      value: -0
      objectReference: {fileID: 0}
    - target: {fileID: 4000013308252972, guid: 75fa8bf3a73ee6b4da0c7a2c6d3db6a1, type: 3}
      propertyPath: m_LocalRotation.w
      value: 0.78711617
      objectReference: {fileID: 0}
    - target: {fileID: 4000013308252972, guid: 75fa8bf3a73ee6b4da0c7a2c6d3db6a1, type: 3}
      propertyPath: m_RootOrder
      value: 2
      objectReference: {fileID: 0}
    - target: {fileID: 4000013308252972, guid: 75fa8bf3a73ee6b4da0c7a2c6d3db6a1, type: 3}
      propertyPath: m_LocalEulerAnglesHint.y
      value: 76.469
      objectReference: {fileID: 0}
    m_RemovedComponents: []
  m_SourcePrefab: {fileID: 100100000, guid: 75fa8bf3a73ee6b4da0c7a2c6d3db6a1, type: 3}
--- !u!4 &1106049070 stripped
Transform:
  m_CorrespondingSourceObject: {fileID: 4000013308252972, guid: 75fa8bf3a73ee6b4da0c7a2c6d3db6a1, type: 3}
  m_PrefabInstance: {fileID: 1106049069}
  m_PrefabAsset: {fileID: 0}
--- !u!1001 &1118611685
PrefabInstance:
  m_ObjectHideFlags: 0
  serializedVersion: 2
  m_Modification:
    m_TransformParent: {fileID: 506890838}
    m_Modifications:
    - target: {fileID: 4000010653347892, guid: d7ba4fe833670a140b9b6085652f0e26, type: 3}
      propertyPath: m_LocalPosition.x
      value: 0
      objectReference: {fileID: 0}
    - target: {fileID: 4000010653347892, guid: d7ba4fe833670a140b9b6085652f0e26, type: 3}
      propertyPath: m_LocalPosition.y
      value: 0.76
      objectReference: {fileID: 0}
    - target: {fileID: 4000010653347892, guid: d7ba4fe833670a140b9b6085652f0e26, type: 3}
      propertyPath: m_LocalPosition.z
      value: 0
      objectReference: {fileID: 0}
    - target: {fileID: 4000010653347892, guid: d7ba4fe833670a140b9b6085652f0e26, type: 3}
      propertyPath: m_LocalRotation.x
      value: -0
      objectReference: {fileID: 0}
    - target: {fileID: 4000010653347892, guid: d7ba4fe833670a140b9b6085652f0e26, type: 3}
      propertyPath: m_LocalRotation.y
      value: -0
      objectReference: {fileID: 0}
    - target: {fileID: 4000010653347892, guid: d7ba4fe833670a140b9b6085652f0e26, type: 3}
      propertyPath: m_LocalRotation.z
      value: -0
      objectReference: {fileID: 0}
    - target: {fileID: 4000010653347892, guid: d7ba4fe833670a140b9b6085652f0e26, type: 3}
      propertyPath: m_LocalRotation.w
      value: 1
      objectReference: {fileID: 0}
    - target: {fileID: 4000010653347892, guid: d7ba4fe833670a140b9b6085652f0e26, type: 3}
      propertyPath: m_RootOrder
      value: 1
      objectReference: {fileID: 0}
    m_RemovedComponents: []
  m_SourcePrefab: {fileID: 100100000, guid: d7ba4fe833670a140b9b6085652f0e26, type: 3}
--- !u!4 &1118611686 stripped
Transform:
  m_CorrespondingSourceObject: {fileID: 4000010653347892, guid: d7ba4fe833670a140b9b6085652f0e26, type: 3}
  m_PrefabInstance: {fileID: 1118611685}
  m_PrefabAsset: {fileID: 0}
--- !u!1 &1254307465
GameObject:
  m_ObjectHideFlags: 0
  m_CorrespondingSourceObject: {fileID: 0}
  m_PrefabInstance: {fileID: 0}
  m_PrefabAsset: {fileID: 0}
  serializedVersion: 6
  m_Component:
  - component: {fileID: 1254307467}
  - component: {fileID: 1254307466}
  m_Layer: 0
  m_Name: Directional Light
  m_TagString: Untagged
  m_Icon: {fileID: 0}
  m_NavMeshLayer: 0
  m_StaticEditorFlags: 0
  m_IsActive: 1
--- !u!108 &1254307466
Light:
  m_ObjectHideFlags: 0
  m_CorrespondingSourceObject: {fileID: 0}
  m_PrefabInstance: {fileID: 0}
  m_PrefabAsset: {fileID: 0}
  m_GameObject: {fileID: 1254307465}
  m_Enabled: 1
  serializedVersion: 10
  m_Type: 1
  m_Shape: 0
  m_Color: {r: 1, g: 0.95686275, b: 0.8392157, a: 1}
  m_Intensity: 1.32
  m_Range: 10
  m_SpotAngle: 30
  m_InnerSpotAngle: 21.80208
  m_CookieSize: 10
  m_Shadows:
    m_Type: 2
    m_Resolution: -1
    m_CustomResolution: -1
    m_Strength: 1
    m_Bias: 0.05
    m_NormalBias: 0.4
    m_NearPlane: 0.2
    m_CullingMatrixOverride:
      e00: 1
      e01: 0
      e02: 0
      e03: 0
      e10: 0
      e11: 1
      e12: 0
      e13: 0
      e20: 0
      e21: 0
      e22: 1
      e23: 0
      e30: 0
      e31: 0
      e32: 0
      e33: 1
    m_UseCullingMatrixOverride: 0
  m_Cookie: {fileID: 0}
  m_DrawHalo: 0
  m_Flare: {fileID: 0}
  m_RenderMode: 0
  m_CullingMask:
    serializedVersion: 2
    m_Bits: 4294967295
  m_RenderingLayerMask: 1
  m_Lightmapping: 4
  m_LightShadowCasterMode: 0
  m_AreaSize: {x: 1, y: 1}
  m_BounceIntensity: 0
  m_ColorTemperature: 6570
  m_UseColorTemperature: 0
  m_BoundingSphereOverride: {x: 0, y: 0, z: 0, w: 0}
  m_UseBoundingSphereOverride: 0
  m_ShadowRadius: 0
  m_ShadowAngle: 0
--- !u!4 &1254307467
Transform:
  m_ObjectHideFlags: 0
  m_CorrespondingSourceObject: {fileID: 0}
  m_PrefabInstance: {fileID: 0}
  m_PrefabAsset: {fileID: 0}
  m_GameObject: {fileID: 1254307465}
  m_LocalRotation: {x: 0.37862617, y: -0.5247092, z: 0.70910376, w: 0.28016862}
  m_LocalPosition: {x: 0, y: 3, z: 0}
  m_LocalScale: {x: 1, y: 1, z: 1}
  m_Children: []
  m_Father: {fileID: 0}
  m_RootOrder: 1
  m_LocalEulerAnglesHint: {x: 107, y: -123.8, z: 0}
--- !u!1001 &1284916120
PrefabInstance:
  m_ObjectHideFlags: 0
  serializedVersion: 2
  m_Modification:
    m_TransformParent: {fileID: 506890838}
    m_Modifications:
    - target: {fileID: 4000011339693244, guid: f94554303b4f7094ea5e12fe79985529, type: 3}
      propertyPath: m_LocalPosition.x
      value: 7.21
      objectReference: {fileID: 0}
    - target: {fileID: 4000011339693244, guid: f94554303b4f7094ea5e12fe79985529, type: 3}
      propertyPath: m_LocalPosition.y
      value: 1.07
      objectReference: {fileID: 0}
    - target: {fileID: 4000011339693244, guid: f94554303b4f7094ea5e12fe79985529, type: 3}
      propertyPath: m_LocalPosition.z
      value: 4.88
      objectReference: {fileID: 0}
    - target: {fileID: 4000011339693244, guid: f94554303b4f7094ea5e12fe79985529, type: 3}
      propertyPath: m_LocalRotation.x
      value: -0
      objectReference: {fileID: 0}
    - target: {fileID: 4000011339693244, guid: f94554303b4f7094ea5e12fe79985529, type: 3}
      propertyPath: m_LocalRotation.y
      value: -0.0059823594
      objectReference: {fileID: 0}
    - target: {fileID: 4000011339693244, guid: f94554303b4f7094ea5e12fe79985529, type: 3}
      propertyPath: m_LocalRotation.z
      value: -0
      objectReference: {fileID: 0}
    - target: {fileID: 4000011339693244, guid: f94554303b4f7094ea5e12fe79985529, type: 3}
      propertyPath: m_LocalRotation.w
      value: -0.9999821
      objectReference: {fileID: 0}
    - target: {fileID: 4000011339693244, guid: f94554303b4f7094ea5e12fe79985529, type: 3}
      propertyPath: m_RootOrder
      value: 3
      objectReference: {fileID: 0}
    - target: {fileID: 4000011339693244, guid: f94554303b4f7094ea5e12fe79985529, type: 3}
      propertyPath: m_LocalEulerAnglesHint.y
      value: -359.335
      objectReference: {fileID: 0}
    m_RemovedComponents: []
  m_SourcePrefab: {fileID: 100100000, guid: f94554303b4f7094ea5e12fe79985529, type: 3}
--- !u!4 &1284916121 stripped
Transform:
  m_CorrespondingSourceObject: {fileID: 4000011339693244, guid: f94554303b4f7094ea5e12fe79985529, type: 3}
  m_PrefabInstance: {fileID: 1284916120}
  m_PrefabAsset: {fileID: 0}
